module github.com/docker/distribution

go 1.23.0

toolchain go1.23.6

require (
	cloud.google.com/go/storage v1.50.0
	github.com/Azure/azure-sdk-for-go v68.0.0+incompatible
	github.com/Azure/azure-sdk-for-go/sdk/azcore v1.17.0
	github.com/Azure/azure-sdk-for-go/sdk/azidentity v1.8.2
	github.com/Azure/azure-sdk-for-go/sdk/storage/azblob v1.6.0
	github.com/DATA-DOG/go-sqlmock v1.5.2
	github.com/Shopify/toxiproxy/v2 v2.11.0
	github.com/alicebob/miniredis/v2 v2.34.0
	github.com/aws/aws-sdk-go v1.55.5
	github.com/benbjohnson/clock v1.3.5
	github.com/cenkalti/backoff/v4 v4.3.0
	github.com/docker/go-metrics v0.0.1
	github.com/docker/libtrust v0.0.0-20160708172513-aabc10ec26b7
	github.com/eko/gocache/lib/v4 v4.2.0
	github.com/eko/gocache/store/redis/v4 v4.2.0
	github.com/getsentry/sentry-go v0.31.1
	github.com/go-redis/redismock/v9 v9.0.3
	github.com/gorilla/handlers v1.5.2
	github.com/gorilla/mux v1.8.1
	github.com/hashicorp/go-multierror v1.1.1
	github.com/jackc/pgerrcode v0.0.0-20240316143900-6e2875d9b438
	github.com/jackc/pgx/v5 v5.7.2
	github.com/olekukonko/tablewriter v0.0.5
	github.com/opencontainers/go-digest v1.0.0
	github.com/opencontainers/image-spec v1.1.1
	github.com/prometheus/client_golang v1.21.0
	github.com/redis/go-redis/v9 v9.7.1
	github.com/rubenv/sql-migrate v1.7.1
	github.com/schollz/progressbar/v3 v3.18.0
	github.com/sirupsen/logrus v1.9.3
	github.com/spf13/cobra v1.9.1
	github.com/spf13/viper v1.19.0
	github.com/stretchr/testify v1.10.0
	github.com/trim21/go-redis-prometheus v0.0.0
	github.com/vmihailenco/msgpack/v5 v5.4.1
	gitlab.com/gitlab-org/api/client-go v0.124.0
	gitlab.com/gitlab-org/labkit v1.22.0
	go.uber.org/automaxprocs v1.6.0
	go.uber.org/mock v0.5.0
	golang.org/x/crypto v0.36.0
	golang.org/x/net v0.35.0
	golang.org/x/oauth2 v0.27.0
	golang.org/x/sync v0.12.0
	golang.org/x/time v0.10.0
	google.golang.org/api v0.219.0
	gopkg.in/yaml.v2 v2.4.0
)

require (
	cel.dev/expr v0.19.0 // indirect
	cloud.google.com/go v0.116.0 // indirect
	cloud.google.com/go/auth v0.14.0 // indirect
	cloud.google.com/go/auth/oauth2adapt v0.2.7 // indirect
	cloud.google.com/go/compute/metadata v0.6.0 // indirect
	cloud.google.com/go/iam v1.2.2 // indirect
	cloud.google.com/go/monitoring v1.21.2 // indirect
	cloud.google.com/go/profiler v0.1.0 // indirect
	github.com/Azure/azure-sdk-for-go/sdk/internal v1.10.0 // indirect
	github.com/Azure/go-autorest v14.2.0+incompatible // indirect
	github.com/Azure/go-autorest/autorest v0.11.29 // indirect
	github.com/Azure/go-autorest/autorest/adal v0.9.22 // indirect
	github.com/Azure/go-autorest/autorest/date v0.3.0 // indirect
	github.com/Azure/go-autorest/autorest/to v0.4.0 // indirect
	github.com/Azure/go-autorest/logger v0.2.1 // indirect
	github.com/Azure/go-autorest/tracing v0.6.0 // indirect
	github.com/AzureAD/microsoft-authentication-library-for-go v1.3.3 // indirect
	github.com/GoogleCloudPlatform/opentelemetry-operations-go/detectors/gcp v1.25.0 // indirect
	github.com/GoogleCloudPlatform/opentelemetry-operations-go/exporter/metric v0.48.1 // indirect
	github.com/GoogleCloudPlatform/opentelemetry-operations-go/internal/resourcemapping v0.48.1 // indirect
	github.com/alicebob/gopher-json v0.0.0-20230218143504-906a9b012302 // indirect
	github.com/beorn7/perks v1.0.1 // indirect
	github.com/census-instrumentation/opencensus-proto v0.4.1 // indirect
	github.com/cespare/xxhash/v2 v2.3.0 // indirect
	github.com/cncf/xds/go v0.0.0-20240905190251-b4127c9b8d78 // indirect
	github.com/davecgh/go-spew v1.1.2-0.20180830191138-d8f796af33cc // indirect
	github.com/dgryski/go-rendezvous v0.0.0-20200823014737-9f7001d12a5f // indirect
	github.com/dnaeon/go-vcr v1.2.0 // indirect
	github.com/envoyproxy/go-control-plane v0.13.1 // indirect
	github.com/envoyproxy/protoc-gen-validate v1.1.0 // indirect
	github.com/felixge/httpsnoop v1.0.4 // indirect
	github.com/fsnotify/fsnotify v1.7.0 // indirect
	github.com/go-gorp/gorp/v3 v3.1.0 // indirect
	github.com/go-logr/logr v1.4.2 // indirect
	github.com/go-logr/stdr v1.2.2 // indirect
	github.com/gofrs/uuid v4.4.0+incompatible // indirect
	github.com/golang-jwt/jwt/v4 v4.5.0 // indirect
	github.com/golang-jwt/jwt/v5 v5.2.1 // indirect
	github.com/golang/groupcache v0.0.0-20210331224755-41bb18bfe9da // indirect
	github.com/golang/mock v1.6.0 // indirect
	github.com/golang/protobuf v1.5.4 // indirect
	github.com/google/go-querystring v1.1.0 // indirect
	github.com/google/pprof v0.0.0-20210804190019-f964ff605595 // indirect
	github.com/google/s2a-go v0.1.9 // indirect
	github.com/google/uuid v1.6.0 // indirect
	github.com/googleapis/enterprise-certificate-proxy v0.3.4 // indirect
	github.com/googleapis/gax-go/v2 v2.14.1 // indirect
	github.com/hashicorp/errwrap v1.1.0 // indirect
	github.com/hashicorp/go-cleanhttp v0.5.2 // indirect
	github.com/hashicorp/go-retryablehttp v0.7.7 // indirect
	github.com/hashicorp/hcl v1.0.0 // indirect
	github.com/inconshreveable/mousetrap v1.1.0 // indirect
	github.com/jackc/pgpassfile v1.0.0 // indirect
	github.com/jackc/pgservicefile v0.0.0-20240606120523-5a60cdf6a761 // indirect
	github.com/jackc/puddle/v2 v2.2.2 // indirect
	github.com/jmespath/go-jmespath v0.4.0 // indirect
	github.com/klauspost/compress v1.17.11 // indirect
	github.com/kylelemons/godebug v1.1.0 // indirect
	github.com/magiconair/properties v1.8.7 // indirect
	github.com/mattn/go-runewidth v0.0.16 // indirect
	github.com/mitchellh/colorstring v0.0.0-20190213212951-d06e56a500db // indirect
	github.com/mitchellh/mapstructure v1.5.0 // indirect
	github.com/munnerz/goautoneg v0.0.0-20191010083416-a7dc8b61c822 // indirect
	github.com/oklog/ulid/v2 v2.0.2 // indirect
	github.com/pelletier/go-toml/v2 v2.2.2 // indirect
	github.com/pkg/browser v0.0.0-20240102092130-5ac0b6a4141c // indirect
	github.com/planetscale/vtprotobuf v0.6.1-0.20240319094008-0393e58bdf10 // indirect
	github.com/pmezard/go-difflib v1.0.1-0.20181226105442-5d4384ee4fb2 // indirect
	github.com/prometheus/client_model v0.6.1 // indirect
	github.com/prometheus/common v0.62.0 // indirect
	github.com/prometheus/procfs v0.15.1 // indirect
	github.com/rivo/uniseg v0.4.7 // indirect
	github.com/sagikazarmark/locafero v0.4.0 // indirect
	github.com/sagikazarmark/slog-shim v0.1.0 // indirect
	github.com/sebest/xff v0.0.0-20210106013422-671bd2870b3a // indirect
	github.com/sourcegraph/conc v0.3.0 // indirect
	github.com/spf13/afero v1.11.0 // indirect
	github.com/spf13/cast v1.6.0 // indirect
	github.com/spf13/pflag v1.0.6 // indirect
	github.com/subosito/gotenv v1.6.0 // indirect
	github.com/vmihailenco/tagparser/v2 v2.0.0 // indirect
	github.com/yuin/gopher-lua v1.1.1 // indirect
	gitlab.com/gitlab-org/go/reopen v1.0.0 // indirect
	go.opencensus.io v0.24.0 // indirect
	go.opentelemetry.io/contrib/detectors/gcp v1.32.0 // indirect
	go.opentelemetry.io/contrib/instrumentation/google.golang.org/grpc/otelgrpc v0.54.0 // indirect
	go.opentelemetry.io/contrib/instrumentation/net/http/otelhttp v0.54.0 // indirect
	go.opentelemetry.io/otel v1.32.0 // indirect
	go.opentelemetry.io/otel/metric v1.32.0 // indirect
	go.opentelemetry.io/otel/sdk v1.32.0 // indirect
	go.opentelemetry.io/otel/sdk/metric v1.32.0 // indirect
	go.opentelemetry.io/otel/trace v1.32.0 // indirect
	go.uber.org/atomic v1.9.0 // indirect
	go.uber.org/multierr v1.9.0 // indirect
	golang.org/x/exp v0.0.0-20240416160154-fe59bbe5cc7f // indirect
	golang.org/x/sys v0.31.0 // indirect
	golang.org/x/term v0.30.0 // indirect
	golang.org/x/text v0.23.0 // indirect
	google.golang.org/genproto v0.0.0-20241118233622-e639e219e697 // indirect
	google.golang.org/genproto/googleapis/api v0.0.0-20241209162323-e6fa225c2576 // indirect
	google.golang.org/genproto/googleapis/rpc v0.0.0-20250124145028-65684f501c47 // indirect
	google.golang.org/grpc v1.70.0 // indirect
	google.golang.org/protobuf v1.36.4 // indirect
	gopkg.in/ini.v1 v1.67.0 // indirect
	gopkg.in/yaml.v3 v3.0.1 // indirect
)
